NTT/NTT.sim/sim_1/behav/xsim/tb_ntt_fntt.vcd
$date
   Sat Oct 11 14:26:12 2025
$end
$version
  2023.1
$end
$timescale
  1ps
$end
$scope module tb_ntt_fntt $end
$var reg 1 ! clk $end
$var reg 1 " rst $end
$var reg 1 # start $end
$var reg 2 $ operation [1:0] $end
$var reg 8 % din_addr [7:0] $end
$var reg 12 & din [11:0] $end
$var reg 1 ' din_valid $end
$var wire 12 ( dout [11:0] $end
$var wire 1 ) done $end
$var integer 32 * i [31:0] $end
$var integer 32 + errors [31:0] $end
$var integer 32 , total_errors [31:0] $end
$scope module dut $end
$var wire 1 - clk $end
$var wire 1 . rst $end
$var wire 1 / start $end
$var wire 2 0 operation [1:0] $end
$var wire 8 1 din_addr [7:0] $end
$var wire 12 2 din [11:0] $end
$var wire 1 3 din_valid $end
$var wire 12 ( dout [11:0] $end
$var wire 1 ) done $end
$var wire 3 4 stage [2:0] $end
$var wire 8 5 loop_counter [7:0] $end
$var wire 9 6 twiddle_addr [8:0] $end
$var wire 8 7 addr_a [7:0] $end
$var wire 8 8 addr_b [7:0] $end
$var wire 12 9 data_a [11:0] $end
$var wire 12 : data_b [11:0] $end
$var wire 12 ; twiddle_factor [11:0] $end
$var wire 12 < result_even [11:0] $end
$var wire 12 = result_odd [11:0] $end
$scope module ctrl $end
$var wire 1 - clk $end
$var wire 1 . rst $end
$var wire 1 / start $end
$var wire 2 0 operation [1:0] $end
$var reg 3 > stage [2:0] $end
$var reg 8 ? loop_counter [7:0] $end
$var reg 9 @ twiddle_addr [8:0] $end
$var reg 1 A done $end
$var reg 2 B state [1:0] $end
$var reg 2 C next_state [1:0] $end
$upscope $end
$scope module addr_gen $end
$var wire 3 4 stage [2:0] $end
$var wire 7 D loop_cnt [6:0] $end
$var reg 8 E addr_a [7:0] $end
$var reg 8 F addr_b [7:0] $end
$upscope $end
$scope module butterfly $end
$var wire 1 - clk $end
$var wire 1 . rst $end
$var wire 1 G ct_mode $end
$var wire 12 9 in_a [11:0] $end
$var wire 12 : in_b [11:0] $end
$var wire 12 ; twiddle [11:0] $end
$var reg 12 H out_even [11:0] $end
$var reg 12 I out_odd [11:0] $end
$var wire 12 J mul_result [11:0] $end
$var wire 12 K add_result [11:0] $end
$var wire 12 L sub_result [11:0] $end
$var reg 12 M mul_input [11:0] $end
$scope module mult $end
$var wire 1 - clk $end
$var wire 1 . rst $end
$var wire 12 N a [11:0] $end
$var wire 12 ; b [11:0] $end
$var reg 12 O result [11:0] $end
$var wire 24 P product [23:0] $end
$var wire 24 Q quotient [23:0] $end
$var wire 24 R remainder [23:0] $end
$upscope $end
$scope module adder $end
$var wire 12 9 a [11:0] $end
$var wire 12 S b [11:0] $end
$var wire 12 K result [11:0] $end
$var wire 13 T sum [12:0] $end
$var wire 13 U sum_sub_q [12:0] $end
$upscope $end
$scope module subtr $end
$var wire 12 9 a [11:0] $end
$var wire 12 V b [11:0] $end
$var wire 12 L result [11:0] $end
$var wire 13 W diff [12:0] $end
$var wire 13 X diff_add_q [12:0] $end
$upscope $end
$upscope $end
$scope module twiddle_inst $end
$var wire 1 - clk $end
$var wire 9 6 addr [8:0] $end
$var reg 12 Y data [11:0] $end
$upscope $end
$upscope $end
$scope task write_input_data $end
$var integer 32 Z case_id [31:0] $end
$var integer 32 [ j [31:0] $end
$upscope $end
$scope task start_fntt $end
$upscope $end
$scope task read_output_data $end
$var integer 32 \ j [31:0] $end
$upscope $end
$scope task verify_results $end
$var integer 32 ] case_id [31:0] $end
$var integer 32 ^ j [31:0] $end
$var reg 12 _ expected [11:0] $end
$upscope $end
$scope task run_test_case $end
$var integer 32 ` case_id [31:0] $end
$upscope $end
$scope task xilinx_isim_temp_3_ln56_excessive_seqblock_chunk $end
$upscope $end
$scope task xilinx_isim_temp_4_ln56_excessive_seqblock_chunk $end
$upscope $end
$scope task xilinx_isim_temp_5_ln56_excessive_seqblock_chunk $end
$upscope $end
$scope task xilinx_isim_temp_6_ln56_excessive_seqblock_chunk $end
$upscope $end
$scope task xilinx_isim_temp_7_ln56_excessive_seqblock_chunk $end
$upscope $end
$scope task xilinx_isim_temp_8_ln56_excessive_seqblock_chunk $end
$upscope $end
$scope task xilinx_isim_temp_9_ln56_excessive_seqblock_chunk $end
$upscope $end
$scope task xilinx_isim_temp_10_ln56_excessive_seqblock_chunk $end
$upscope $end
$scope task xilinx_isim_temp_11_ln56_excessive_seqblock_chunk $end
$upscope $end
$scope task xilinx_isim_temp_12_ln56_excessive_seqblock_chunk $end
$upscope $end
$upscope $end
$enddefinitions $end
#0
$dumpvars
0!
1"
0#
b0 $
b0 %
b0 &
0'
bx (
0)
bx *
bx +
b0 ,
0-
1.
0/
b0 0
b0 1
b0 2
03
b0 4
b0 5
b0 6
b0 7
b10000000 8
bx 9
bx :
bx ;
b0 <
b0 =
b0 >
b0 ?
b0 @
0A
b0 B
b0 C
b0 D
b0 E
b10000000 F
0G
b0 H
b0 I
b0 J
bx K
bx L
bx M
bx N
b0 O
bx P
bx Q
bx R
bx S
bx T
bx U
bx V
bx W
bx X
bx Y
bx Z
bx [
bx \
bx ]
bx ^
bx _
bx `
$end
#10000
1!
b0 (
1-
b0 9
b0 :
b1 ;
b0 K
b0 L
b0 M
b0 N
b0 P
b0 Q
b0 R
b0 S
b0 T
b1001011111111 U
b0 V
b0 W
b110100000001 X
b1 Y
#20000
0!
0-
#30000
1!
1-
#40000
0!
0-
#50000
1!
1-
#60000
0!
0-
#70000
1!
1-
#80000
0!
0-
#90000
1!
1-
#100000
0!
0"
0-
0.
#110000
1!
1-
#120000
0!
0-
#130000
1!
1-
#140000
0!
0-
#150000
1!
1-
#160000
0!
0-
#170000
1!
1-
#180000
0!
0-
#190000
1!
1-
#200000
0!
1'
0-
13
b0 Z
b0 [
b0 `
#210000
1!
b1 %
b0 (
1-
b1 1
b1 [
#220000
0!
0-
#230000
1!
b10 %
b0 (
1-
b10 1
b10 [
#240000
0!
0-
#250000
1!
b11 %
b0 (
1-
b11 1
b11 [
#260000
0!
0-
#270000
1!
b100 %
b0 (
1-
b100 1
b100 [
#280000
0!
0-
#290000
1!
b101 %
b0 (
1-
b101 1
b101 [
#300000
0!
0-
#310000
1!
b110 %
b0 (
1-
b110 1
b110 [
#320000
0!
0-
#330000
1!
b111 %
b0 (
1-
b111 1
b111 [
#340000
0!
0-
#350000
1!
b1000 %
b0 (
1-
b1000 1
b1000 [
#360000
0!
0-
#370000
1!
b1001 %
b0 (
1-
b1001 1
b1001 [
#380000
0!
0-
#390000
1!
b1010 %
b0 (
1-
b1010 1
b1010 [
#400000
0!
0-
#410000
1!
b1011 %
b0 (
1-
b1011 1
b1011 [
#420000
0!
0-
#430000
1!
b1100 %
b0 (
1-
b1100 1
b1100 [
#440000
0!
0-
#450000
1!
b1101 %
b0 (
1-
b1101 1
b1101 [
#460000
0!
0-
#470000
1!
b1110 %
b0 (
1-
b1110 1
b1110 [
#480000
0!
0-
#490000
1!
b1111 %
b0 (
1-
b1111 1
b1111 [
#500000
0!
0-
#510000
1!
b10000 %
b0 (
1-
b10000 1
b10000 [
#520000
0!
0-
#530000
1!
b10001 %
b0 (
1-
b10001 1
b10001 [
#540000
0!
0-
#550000
1!
b10010 %
b0 (
1-
b10010 1
b10010 [
#560000
0!
0-
#570000
1!
b10011 %
b0 (
1-
b10011 1
b10011 [
#580000
0!
0-
#590000
1!
b10100 %
b0 (
1-
b10100 1
b10100 [
#600000
0!
0-
#610000
1!
b10101 %
b0 (
1-
b10101 1
b10101 [
#620000
0!
0-
#630000
1!
b10110 %
b0 (
1-
b10110 1
b10110 [
#640000
0!
0-
#650000
1!
b10111 %
b0 (
1-
b10111 1
b10111 [
#660000
0!
0-
#670000
1!
b11000 %
b0 (
1-
b11000 1
b11000 [
#680000
0!
0-
#690000
1!
b11001 %
b0 (
1-
b11001 1
b11001 [
#700000
0!
0-
#710000
1!
b11010 %
b0 (
1-
b11010 1
b11010 [
#720000
0!
0-
#730000
1!
b11011 %
b0 (
1-
b11011 1
b11011 [
#740000
0!
0-
#750000
1!
b11100 %
b0 (
1-
b11100 1
b11100 [
#760000
0!
0-
#770000
1!
b11101 %
b0 (
1-
b11101 1
b11101 [
#780000
0!
0-
#790000
1!
b11110 %
b0 (
1-
b11110 1
b11110 [
#800000
0!
0-
#810000
1!
b11111 %
b0 (
1-
b11111 1
b11111 [
#820000
0!
0-
#830000
1!
b100000 %
b0 (
1-
b100000 1
b100000 [
#840000
0!
0-
#850000
1!
b100001 %
b0 (
1-
b100001 1
b100001 [
#860000
0!
0-
#870000
1!
b100010 %
b0 (
1-
b100010 1
b100010 [
#880000
0!
0-
#890000
1!
b100011 %
b0 (
1-
b100011 1
b100011 [
#900000
0!
0-
#910000
1!
b100100 %
b0 (
1-
b100100 1
b100100 [
#920000
0!
0-
#930000
1!
b100101 %
b0 (
1-
b100101 1
b100101 [
#940000
0!
0-
#950000
1!
b100110 %
b0 (
1-
b100110 1
b100110 [
#960000
0!
0-
#970000
1!
b100111 %
b0 (
1-
b100111 1
b100111 [
#980000
0!
0-
#990000
1!
b101000 %
b0 (
1-
b101000 1
b101000 [
#1000000
0!
0-
#1010000
1!
b101001 %
b0 (
1-
b101001 1
b101001 [
#1020000
0!
0-
#1030000
1!
b101010 %
b0 (
1-
b101010 1
b101010 [
#1040000
0!
0-
#1050000
1!
b101011 %
b0 (
1-
b101011 1
b101011 [
#1060000
0!
0-
#1070000
1!
b101100 %
b0 (
1-
b101100 1
b101100 [
#1080000
0!
0-
#1090000
1!
b101101 %
b0 (
1-
b101101 1
b101101 [
#1100000
0!
0-
#1110000
1!
b101110 %
b0 (
1-
b101110 1
b101110 [
#1120000
0!
0-
#1130000
1!
b101111 %
b0 (
1-
b101111 1
b101111 [
#1140000
0!
0-
#1150000
1!
b110000 %
b0 (
1-
b110000 1
b110000 [
#1160000
0!
0-
#1170000
1!
b110001 %
b0 (
1-
b110001 1
b110001 [
#1180000
0!
0-
#1190000
1!
b110010 %
b0 (
1-
b110010 1
b110010 [
#1200000
0!
0-
#1210000
1!
b110011 %
b0 (
1-
b110011 1
b110011 [
#1220000
0!
0-
#1230000
1!
b110100 %
b0 (
1-
b110100 1
b110100 [
#1240000
0!
0-
#1250000
1!
b110101 %
b0 (
1-
b110101 1
b110101 [
#1260000
0!
0-
#1270000
1!
b110110 %
b0 (
1-
b110110 1
b110110 [
#1280000
0!
0-
#1290000
1!
b110111 %
b0 (
1-
b110111 1
b110111 [
#1300000
0!
0-
#1310000
1!
b111000 %
b0 (
1-
b111000 1
b111000 [
#1320000
0!
0-
#1330000
1!
b111001 %
b0 (
1-
b111001 1
b111001 [
#1340000
0!
0-
#1350000
1!
b111010 %
b0 (
1-
b111010 1
b111010 [
#1360000
0!
0-
#1370000
1!
b111011 %
b0 (
1-
b111011 1
b111011 [
#1380000
0!
0-
#1390000
1!
b111100 %
b0 (
1-
b111100 1
b111100 [
#1400000
0!
0-
#1410000
1!
b111101 %
b0 (
1-
b111101 1
b111101 [
#1420000
0!
0-
#1430000
1!
b111110 %
b0 (
1-
b111110 1
b111110 [
#1440000
0!
0-
#1450000
1!
b111111 %
b0 (
1-
b111111 1
b111111 [
#1460000
0!
0-
#1470000
1!
b1000000 %
b0 (
1-
b1000000 1
b1000000 [
#1480000
0!
0-
#1490000
1!
b1000001 %
b0 (
1-
b1000001 1
b1000001 [
#1500000
0!
0-
#1510000
1!
b1000010 %
b0 (
1-
b1000010 1
b1000010 [
#1520000
0!
0-
#1530000
1!
b1000011 %
b0 (
1-
b1000011 1
b1000011 [
#1540000
0!
0-
#1550000
1!
b1000100 %
b0 (
1-
b1000100 1
b1000100 [
#1560000
0!
0-
#1570000
1!
b1000101 %
b0 (
1-
b1000101 1
b1000101 [
#1580000
0!
0-
#1590000
1!
b1000110 %
b0 (
1-
b1000110 1
b1000110 [
#1600000
0!
0-
#1610000
1!
b1000111 %
b0 (
1-
b1000111 1
b1000111 [
#1620000
0!
0-
#1630000
1!
b1001000 %
b0 (
1-
b1001000 1
b1001000 [
#1640000
0!
0-
#1650000
1!
b1001001 %
b0 (
1-
b1001001 1
b1001001 [
#1660000
0!
0-
#1670000
1!
b1001010 %
b0 (
1-
b1001010 1
b1001010 [
#1680000
0!
0-
#1690000
1!
b1001011 %
b0 (
1-
b1001011 1
b1001011 [
#1700000
0!
0-
#1710000
1!
b1001100 %
b0 (
1-
b1001100 1
b1001100 [
#1720000
0!
0-
#1730000
1!
b1001101 %
b0 (
1-
b1001101 1
b1001101 [
#1740000
0!
0-
#1750000
1!
b1001110 %
b0 (
1-
b1001110 1
b1001110 [
#1760000
0!
0-
#1770000
1!
b1001111 %
b0 (
1-
b1001111 1
b1001111 [
#1780000
0!
0-
#1790000
1!
b1010000 %
b0 (
1-
b1010000 1
b1010000 [
#1800000
0!
0-
#1810000
1!
b1010001 %
b0 (
1-
b1010001 1
b1010001 [
#1820000
0!
0-
#1830000
1!
b1010010 %
b0 (
1-
b1010010 1
b1010010 [
#1840000
0!
0-
#1850000
1!
b1010011 %
b0 (
1-
b1010011 1
b1010011 [
#1860000
0!
0-
#1870000
1!
b1010100 %
b0 (
1-
b1010100 1
b1010100 [
#1880000
0!
0-
#1890000
1!
b1010101 %
b0 (
1-
b1010101 1
b1010101 [
#1900000
0!
0-
#1910000
1!
b1010110 %
b0 (
1-
b1010110 1
b1010110 [
#1920000
0!
0-
#1930000
1!
b1010111 %
b0 (
1-
b1010111 1
b1010111 [
#1940000
0!
0-
#1950000
1!
b1011000 %
b0 (
1-
b1011000 1
b1011000 [
#1960000
0!
0-
#1970000
1!
b1011001 %
b0 (
1-
b1011001 1
b1011001 [
#1980000
0!
0-
#1990000
1!
b1011010 %
b0 (
1-
b1011010 1
b1011010 [
#2000000
0!
0-
#2010000
1!
b1011011 %
b0 (
1-
b1011011 1
b1011011 [
#2020000
0!
0-
#2030000
1!
b1011100 %
b0 (
1-
b1011100 1
b1011100 [
#2040000
0!
0-
#2050000
1!
b1011101 %
b0 (
1-
b1011101 1
b1011101 [
#2060000
0!
0-
#2070000
1!
b1011110 %
b0 (
1-
b1011110 1
b1011110 [
#2080000
0!
0-
#2090000
1!
b1011111 %
b0 (
1-
b1011111 1
b1011111 [
#2100000
0!
0-
#2110000
1!
b1100000 %
b0 (
1-
b1100000 1
b1100000 [
#2120000
0!
0-
#2130000
1!
b1100001 %
b0 (
1-
b1100001 1
b1100001 [
#2140000
0!
0-
#2150000
1!
b1100010 %
b0 (
1-
b1100010 1
b1100010 [
#2160000
0!
0-
#2170000
1!
b1100011 %
b0 (
1-
b1100011 1
b1100011 [
#2180000
0!
0-
#2190000
1!
b1100100 %
b0 (
1-
b1100100 1
b1100100 [
#2200000
0!
0-
#2210000
1!
b1100101 %
b0 (
1-
b1100101 1
b1100101 [
#2220000
0!
0-
#2230000
1!
b1100110 %
b0 (
1-
b1100110 1
b1100110 [
#2240000
0!
0-
#2250000
1!
b1100111 %
b0 (
1-
b1100111 1
b1100111 [
#2260000
0!
0-
#2270000
1!
b1101000 %
b0 (
1-
b1101000 1
b1101000 [
#2280000
0!
0-
#2290000
1!
b1101001 %
b0 (
1-
b1101001 1
b1101001 [
#2300000
0!
0-
#2310000
1!
b1101010 %
b0 (
1-
b1101010 1
b1101010 [
#2320000
0!
0-
#2330000
1!
b1101011 %
b0 (
1-
b1101011 1
b1101011 [
#2340000
0!
0-
#2350000
1!
b1101100 %
b0 (
1-
b1101100 1
b1101100 [
#2360000
0!
0-
#2370000
1!
b1101101 %
b0 (
1-
b1101101 1
b1101101 [
#2380000
0!
0-
#2390000
1!
b1101110 %
b0 (
1-
b1101110 1
b1101110 [
#2400000
0!
0-
#2410000
1!
b1101111 %
b0 (
1-
b1101111 1
b1101111 [
#2420000
0!
0-
#2430000
1!
b1110000 %
b0 (
1-
b1110000 1
b1110000 [
#2440000
0!
0-
#2450000
1!
b1110001 %
b0 (
1-
b1110001 1
b1110001 [
#2460000
0!
0-
#2470000
1!
b1110010 %
b0 (
1-
b1110010 1
b1110010 [
#2480000
0!
0-
#2490000
1!
b1110011 %
b0 (
1-
b1110011 1
b1110011 [
#2500000
0!
0-
#2510000
1!
b1110100 %
b0 (
1-
b1110100 1
b1110100 [
#2520000
0!
0-
#2530000
1!
b1110101 %
b0 (
1-
b1110101 1
b1110101 [
#2540000
0!
0-
#2550000
1!
b1110110 %
b0 (
1-
b1110110 1
b1110110 [
#2560000
0!
0-
#2570000
1!
b1110111 %
b0 (
1-
b1110111 1
b1110111 [
#2580000
0!
0-
#2590000
1!
b1111000 %
b0 (
1-
b1111000 1
b1111000 [
#2600000
0!
0-
#2610000
1!
b1111001 %
b0 (
1-
b1111001 1
b1111001 [
#2620000
0!
0-
#2630000
1!
b1111010 %
b0 (
1-
b1111010 1
b1111010 [
#2640000
0!
0-
#2650000
1!
b1111011 %
b0 (
1-
b1111011 1
b1111011 [
#2660000
0!
0-
#2670000
1!
b1111100 %
b0 (
1-
b1111100 1
b1111100 [
#2680000
0!
0-
#2690000
1!
b1111101 %
b0 (
1-
b1111101 1
b1111101 [
#2700000
0!
0-
#2710000
1!
b1111110 %
b0 (
1-
b1111110 1
b1111110 [
#2720000
0!
0-
#2730000
1!
b1111111 %
b0 (
1-
b1111111 1
b1111111 [
#2740000
0!
0-
#2750000
1!
b10000000 %
1-
b10000000 1
b10000000 [
#2760000
0!
0-
#2770000
1!
b10000001 %
b0 (
1-
b10000001 1
b10000001 [
#2780000
0!
0-
#2790000
1!
b10000010 %
b0 (
1-
b10000010 1
b10000010 [
#2800000
0!
0-
#2810000
1!
b10000011 %
b0 (
1-
b10000011 1
b10000011 [
#2820000
0!
0-
#2830000
1!
b10000100 %
b0 (
1-
b10000100 1
b10000100 [
#2840000
0!
0-
#2850000
1!
b10000101 %
b0 (
1-
b10000101 1
b10000101 [
#2860000
0!
0-
#2870000
1!
b10000110 %
b0 (
1-
b10000110 1
b10000110 [
#2880000
0!
0-
#2890000
1!
b10000111 %
b0 (
1-
b10000111 1
b10000111 [
#2900000
0!
0-
#2910000
1!
b10001000 %
b0 (
1-
b10001000 1
b10001000 [
#2920000
0!
0-
#2930000
1!
b10001001 %
b0 (
1-
b10001001 1
b10001001 [
#2940000
0!
0-
#2950000
1!
b10001010 %
b0 (
1-
b10001010 1
b10001010 [
#2960000
0!
0-
#2970000
1!
b10001011 %
b0 (
1-
b10001011 1
b10001011 [
#2980000
0!
0-
#2990000
1!
b10001100 %
b0 (
1-
b10001100 1
b10001100 [
#3000000
0!
0-
#3010000
1!
b10001101 %
b0 (
1-
b10001101 1
b10001101 [
#3020000
0!
0-
#3030000
1!
b10001110 %
b0 (
1-
b10001110 1
b10001110 [
#3040000
0!
0-
#3050000
1!
b10001111 %
b0 (
1-
b10001111 1
b10001111 [
#3060000
0!
0-
#3070000
1!
b10010000 %
b0 (
1-
b10010000 1
b10010000 [
#3080000
0!
0-
#3090000
1!
b10010001 %
b0 (
1-
b10010001 1
b10010001 [
#3100000
0!
0-
#3110000
1!
b10010010 %
b0 (
1-
b10010010 1
b10010010 [
#3120000
0!
0-
#3130000
1!
b10010011 %
b0 (
1-
b10010011 1
b10010011 [
#3140000
0!
0-
#3150000
1!
b10010100 %
b0 (
1-
b10010100 1
b10010100 [
#3160000
0!
0-
#3170000
1!
b10010101 %
b0 (
1-
b10010101 1
b10010101 [
#3180000
0!
0-
#3190000
1!
b10010110 %
b0 (
1-
b10010110 1
b10010110 [
#3200000
0!
0-
#3210000
1!
b10010111 %
b0 (
1-
b10010111 1
b10010111 [
#3220000
0!
0-
#3230000
1!
b10011000 %
b0 (
1-
b10011000 1
b10011000 [
#3240000
0!
0-
#3250000
1!
b10011001 %
b0 (
1-
b10011001 1
b10011001 [
#3260000
0!
0-
#3270000
1!
b10011010 %
b0 (
1-
b10011010 1
b10011010 [
#3280000
0!
0-
#3290000
1!
b10011011 %
b0 (
1-
b10011011 1
b10011011 [
#3300000
0!
0-
#3310000
1!
b10011100 %
b0 (
1-
b10011100 1
b10011100 [
#3320000
0!
0-
#3330000
1!
b10011101 %
b0 (
1-
b10011101 1
b10011101 [
#3340000
0!
0-
#3350000
1!
b10011110 %
b0 (
1-
b10011110 1
b10011110 [
#3360000
0!
0-
#3370000
1!
b10011111 %
b0 (
1-
b10011111 1
b10011111 [
#3380000
0!
0-
#3390000
1!
b10100000 %
b0 (
1-
b10100000 1
b10100000 [
#3400000
0!
0-
#3410000
1!
b10100001 %
b0 (
1-
b10100001 1
b10100001 [
#3420000
0!
0-
#3430000
1!
b10100010 %
b0 (
1-
b10100010 1
b10100010 [
#3440000
0!
0-
#3450000
1!
b10100011 %
b0 (
1-
b10100011 1
b10100011 [
#3460000
0!
0-
#3470000
1!
b10100100 %
b0 (
1-
b10100100 1
b10100100 [
#3480000
0!
0-
#3490000
1!
b10100101 %
b0 (
1-
b10100101 1
b10100101 [
#3500000
0!
0-
#3510000
1!
b10100110 %
b0 (
1-
b10100110 1
b10100110 [
#3520000
0!
0-
#3530000
1!
b10100111 %
b0 (
1-
b10100111 1
b10100111 [
#3540000
0!
0-
#3550000
1!
b10101000 %
b0 (
1-
b10101000 1
b10101000 [
#3560000
0!
0-
#3570000
1!
b10101001 %
b0 (
1-
b10101001 1
b10101001 [
#3580000
0!
0-
#3590000
1!
b10101010 %
b0 (
1-
b10101010 1
b10101010 [
#3600000
0!
0-
#3610000
1!
b10101011 %
b0 (
1-
b10101011 1
b10101011 [
#3620000
0!
0-
#3630000
1!
b10101100 %
b0 (
1-
b10101100 1
b10101100 [
#3640000
0!
0-
#3650000
1!
b10101101 %
b0 (
1-
b10101101 1
b10101101 [
#3660000
0!
0-
#3670000
1!
b10101110 %
b0 (
1-
b10101110 1
b10101110 [
#3680000
0!
0-
#3690000
1!
b10101111 %
b0 (
1-
b10101111 1
b10101111 [
#3700000
0!
0-
#3710000
1!
b10110000 %
b0 (
1-
b10110000 1
b10110000 [
#3720000
0!
0-
#3730000
1!
b10110001 %
b0 (
1-
b10110001 1
b10110001 [
#3740000
0!
0-
#3750000
1!
b10110010 %
b0 (
1-
b10110010 1
b10110010 [
#3760000
0!
0-
#3770000
1!
b10110011 %
b0 (
1-
b10110011 1
b10110011 [
#3780000
0!
0-
#3790000
1!
b10110100 %
b0 (
1-
b10110100 1
b10110100 [
#3800000
0!
0-
#3810000
1!
b10110101 %
b0 (
1-
b10110101 1
b10110101 [
#3820000
0!
0-
#3830000
1!
b10110110 %
b0 (
1-
b10110110 1
b10110110 [
#3840000
0!
0-
#3850000
1!
b10110111 %
b0 (
1-
b10110111 1
b10110111 [
#3860000
0!
0-
#3870000
1!
b10111000 %
b0 (
1-
b10111000 1
b10111000 [
#3880000
0!
0-
#3890000
1!
b10111001 %
b0 (
1-
b10111001 1
b10111001 [
#3900000
0!
0-
#3910000
1!
b10111010 %
b0 (
1-
b10111010 1
b10111010 [
#3920000
0!
0-
#3930000
1!
b10111011 %
b0 (
1-
b10111011 1
b10111011 [
#3940000
0!
0-
#3950000
1!
b10111100 %
b0 (
1-
b10111100 1
b10111100 [
#3960000
0!
0-
#3970000
1!
b10111101 %
b0 (
1-
b10111101 1
b10111101 [
#3980000
0!
0-
#3990000
1!
b10111110 %
b0 (
1-
b10111110 1
b10111110 [
#4000000
0!
0-
#4010000
1!
b10111111 %
b0 (
1-
b10111111 1
b10111111 [
#4020000
0!
0-
#4030000
1!
b11000000 %
b0 (
1-
b11000000 1
b11000000 [
#4040000
0!
0-
#4050000
1!
b11000001 %
b0 (
1-
b11000001 1
b11000001 [
#4060000
0!
0-
#4070000
1!
b11000010 %
b0 (
1-
b11000010 1
b11000010 [
#4080000
0!
0-
#4090000
1!
b11000011 %
b0 (
1-
b11000011 1
b11000011 [
#4100000
0!
0-
#4110000
1!
b11000100 %
b0 (
1-
b11000100 1
b11000100 [
#4120000
0!
0-
#4130000
1!
b11000101 %
b0 (
1-
b11000101 1
b11000101 [
#4140000
0!
0-
#4150000
1!
b11000110 %
b0 (
1-
b11000110 1
b11000110 [
#4160000
0!
0-
#4170000
1!
b11000111 %
b0 (
1-
b11000111 1
b11000111 [
#4180000
0!
0-
#4190000
1!
b11001000 %
b0 (
1-
b11001000 1
b11001000 [
#4200000
0!
0-
#4210000
1!
b11001001 %
b0 (
1-
b11001001 1
b11001001 [
#4220000
0!
0-
#4230000
1!
b11001010 %
b0 (
1-
b11001010 1
b11001010 [
#4240000
0!
0-
#4250000
1!
b11001011 %
b0 (
1-
b11001011 1
b11001011 [
#4260000
0!
0-
#4270000
1!
b11001100 %
b0 (
1-
b11001100 1
b11001100 [
#4280000
0!
0-
#4290000
1!
b11001101 %
b0 (
1-
b11001101 1
b11001101 [
#4300000
0!
0-
#4310000
1!
b11001110 %
b0 (
1-
b11001110 1
b11001110 [
#4320000
0!
0-
#4330000
1!
b11001111 %
b0 (
1-
b11001111 1
b11001111 [
#4340000
0!
0-
#4350000
1!
b11010000 %
b0 (
1-
b11010000 1
b11010000 [
#4360000
0!
0-
#4370000
1!
b11010001 %
b0 (
1-
b11010001 1
b11010001 [
#4380000
0!
0-
#4390000
1!
b11010010 %
b0 (
1-
b11010010 1
b11010010 [
#4400000
0!
0-
#4410000
1!
b11010011 %
b0 (
1-
b11010011 1
b11010011 [
#4420000
0!
0-
#4430000
1!
b11010100 %
b0 (
1-
b11010100 1
b11010100 [
#4440000
0!
0-
#4450000
1!
b11010101 %
b0 (
1-
b11010101 1
b11010101 [
#4460000
0!
0-
#4470000
1!
b11010110 %
b0 (
1-
b11010110 1
b11010110 [
#4480000
0!
0-
#4490000
1!
b11010111 %
b0 (
1-
b11010111 1
b11010111 [
#4500000
0!
0-
#4510000
1!
b11011000 %
b0 (
1-
b11011000 1
b11011000 [
#4520000
0!
0-
#4530000
1!
b11011001 %
b0 (
1-
b11011001 1
b11011001 [
#4540000
0!
0-
#4550000
1!
b11011010 %
b0 (
1-
b11011010 1
b11011010 [
#4560000
0!
0-
#4570000
1!
b11011011 %
b0 (
1-
b11011011 1
b11011011 [
#4580000
0!
0-
#4590000
1!
b11011100 %
b0 (
1-
b11011100 1
b11011100 [
#4600000
0!
0-
#4610000
1!
b11011101 %
b0 (
1-
b11011101 1
b11011101 [
#4620000
0!
0-
#4630000
1!
b11011110 %
b0 (
1-
b11011110 1
b11011110 [
#4640000
0!
0-
#4650000
1!
b11011111 %
b0 (
1-
b11011111 1
b11011111 [
#4660000
0!
0-
#4670000
1!
b11100000 %
b0 (
1-
b11100000 1
b11100000 [
#4680000
0!
0-
#4690000
1!
b11100001 %
b0 (
1-
b11100001 1
b11100001 [
#4700000
0!
0-
#4710000
1!
b11100010 %
b0 (
1-
b11100010 1
b11100010 [
#4720000
0!
0-
#4730000
1!
b11100011 %
b0 (
1-
b11100011 1
b11100011 [
#4740000
0!
0-
#4750000
1!
b11100100 %
b0 (
1-
b11100100 1
b11100100 [
#4760000
0!
0-
#4770000
1!
b11100101 %
b0 (
1-
b11100101 1
b11100101 [
#4780000
0!
0-
#4790000
1!
b11100110 %
b0 (
1-
b11100110 1
b11100110 [
#4800000
0!
0-
#4810000
1!
b11100111 %
b0 (
1-
b11100111 1
b11100111 [
#4820000
0!
0-
#4830000
1!
b11101000 %
b0 (
1-
b11101000 1
b11101000 [
#4840000
0!
0-
#4850000
1!
b11101001 %
b0 (
1-
b11101001 1
b11101001 [
#4860000
0!
0-
#4870000
1!
b11101010 %
b0 (
1-
b11101010 1
b11101010 [
#4880000
0!
0-
#4890000
1!
b11101011 %
b0 (
1-
b11101011 1
b11101011 [
#4900000
0!
0-
#4910000
1!
b11101100 %
b0 (
1-
b11101100 1
b11101100 [
#4920000
0!
0-
#4930000
1!
b11101101 %
b0 (
1-
b11101101 1
b11101101 [
#4940000
0!
0-
#4950000
1!
b11101110 %
b0 (
1-
b11101110 1
b11101110 [
#4960000
0!
0-
#4970000
1!
b11101111 %
b0 (
1-
b11101111 1
b11101111 [
#4980000
0!
0-
#4990000
1!
b11110000 %
b0 (
1-
b11110000 1
b11110000 [
#5000000
0!
0-
#5010000
1!
b11110001 %
b0 (
1-
b11110001 1
b11110001 [
#5020000
0!
0-
#5030000
1!
b11110010 %
b0 (
1-
b11110010 1
b11110010 [
#5040000
0!
0-
#5050000
1!
b11110011 %
b0 (
1-
b11110011 1
b11110011 [
#5060000
0!
0-
#5070000
1!
b11110100 %
b0 (
1-
b11110100 1
b11110100 [
#5080000
0!
0-
#5090000
1!
b11110101 %
b0 (
1-
b11110101 1
b11110101 [
#5100000
0!
0-
#5110000
1!
b11110110 %
b0 (
1-
b11110110 1
b11110110 [
#5120000
0!
0-
#5130000
1!
b11110111 %
b0 (
1-
b11110111 1
b11110111 [
#5140000
0!
0-
#5150000
1!
b11111000 %
b0 (
1-
b11111000 1
b11111000 [
#5160000
0!
0-
#5170000
1!
b11111001 %
b0 (
1-
b11111001 1
b11111001 [
#5180000
0!
0-
#5190000
1!
b11111010 %
b0 (
1-
b11111010 1
b11111010 [
#5200000
0!
0-
#5210000
1!
b11111011 %
b0 (
1-
b11111011 1
b11111011 [
#5220000
0!
0-
#5230000
1!
b11111100 %
b0 (
1-
b11111100 1
b11111100 [
#5240000
0!
0-
#5250000
1!
b11111101 %
b0 (
1-
b11111101 1
b11111101 [
#5260000
0!
0-
#5270000
1!
b11111110 %
b0 (
1-
b11111110 1
b11111110 [
#5280000
0!
0-
#5290000
1!
b11111111 %
b0 (
1-
b11111111 1
b11111111 [
#5300000
0!
0-
#5310000
1!
1#
b1 $
0'
1-
1/
b1 0
03
b1 C
1G
b100000000 [
#5320000
0!
0-
#5330000
1!
0#
1-
0/
b1 B
b1 C
#5340000
0!
0-
